<?xml version="1.0" encoding="UTF-8" standalone="no"?>
<!DOCTYPE svg PUBLIC "-//W3C//DTD SVG 1.1//EN" "http://www.w3.org/Graphics/SVG/1.1/DTD/svg11.dtd">
<svg width="100%" height="100%" viewBox="0 0 54 50" version="1.1" xmlns="http://www.w3.org/2000/svg" xmlns:xlink="http://www.w3.org/1999/xlink" xml:space="preserve" xmlns:serif="http://www.serif.com/" style="fill-rule:evenodd;clip-rule:evenodd;stroke-linejoin:round;stroke-miterlimit:2;">
    <g transform="matrix(1,0,0,1,-163.995,-782.633)">
        <g id="ico-check" transform="matrix(1,0,0,1.22476,19.4163,-166.211)">
            <path d="M164.267,815.54L144.578,794.893L146.255,793.294L164.39,812.312L196.621,774.716L198.175,776.346L165.944,813.941L164.267,815.54Z" style="fill:rgb(116,116,116);"/>
        </g>
    </g>
</svg>
