<?xml version="1.0" encoding="UTF-8" standalone="no"?>
<!DOCTYPE svg PUBLIC "-//W3C//DTD SVG 1.1//EN" "http://www.w3.org/Graphics/SVG/1.1/DTD/svg11.dtd">
<svg width="100%" height="100%" viewBox="0 0 56 44" version="1.1" xmlns="http://www.w3.org/2000/svg" xmlns:xlink="http://www.w3.org/1999/xlink" xml:space="preserve" xmlns:serif="http://www.serif.com/" style="fill-rule:evenodd;clip-rule:evenodd;stroke-linejoin:round;stroke-miterlimit:2;">
    <g transform="matrix(1,0,0,1,-33.0273,-328.505)">
        <g id="ico-clander">
            <g transform="matrix(0.138452,0,0,2e-06,33.7661,350.052)">
                <rect x="38" y="342" width="54" height="54" style="fill:none;stroke:rgb(116,116,116);stroke-width:20.43px;"/>
            </g>
            <g transform="matrix(0.138452,0,0,2e-06,33.7661,357.137)">
                <rect x="38" y="342" width="54" height="54" style="fill:none;stroke:rgb(116,116,116);stroke-width:20.43px;"/>
            </g>
            <g transform="matrix(0.138452,0,0,2e-06,33.7661,364.223)">
                <rect x="38" y="342" width="54" height="54" style="fill:none;stroke:rgb(116,116,116);stroke-width:20.43px;"/>
            </g>
            <g transform="matrix(0.138452,0,0,2e-06,45.4079,342.967)">
                <rect x="38" y="342" width="54" height="54" style="fill:none;stroke:rgb(116,116,116);stroke-width:20.43px;"/>
            </g>
            <g transform="matrix(0.138452,0,0,2e-06,45.4079,350.052)">
                <rect x="38" y="342" width="54" height="54" style="fill:none;stroke:rgb(116,116,116);stroke-width:20.43px;"/>
            </g>
            <g transform="matrix(0.138452,0,0,2e-06,33.7661,342.967)">
                <rect x="38" y="342" width="54" height="54" style="fill:none;stroke:rgb(116,116,116);stroke-width:20.43px;"/>
            </g>
            <g transform="matrix(0.138452,0,0,2e-06,45.4079,357.137)">
                <rect x="38" y="342" width="54" height="54" style="fill:none;stroke:rgb(116,116,116);stroke-width:20.43px;"/>
            </g>
            <g transform="matrix(0.138452,0,0,2e-06,45.4079,364.223)">
                <rect x="38" y="342" width="54" height="54" style="fill:none;stroke:rgb(116,116,116);stroke-width:20.43px;"/>
            </g>
            <g transform="matrix(0.138452,0,0,2e-06,57.0497,342.967)">
                <rect x="38" y="342" width="54" height="54" style="fill:none;stroke:rgb(116,116,116);stroke-width:20.43px;"/>
            </g>
            <g transform="matrix(0.138452,0,0,2e-06,57.0497,350.052)">
                <rect x="38" y="342" width="54" height="54" style="fill:none;stroke:rgb(116,116,116);stroke-width:20.43px;"/>
            </g>
            <g transform="matrix(0.138452,0,0,2e-06,57.0497,357.137)">
                <rect x="38" y="342" width="54" height="54" style="fill:none;stroke:rgb(116,116,116);stroke-width:20.43px;"/>
            </g>
            <g transform="matrix(0.138452,0,0,2e-06,57.0497,364.223)">
                <rect x="38" y="342" width="54" height="54" style="fill:none;stroke:rgb(116,116,116);stroke-width:20.43px;"/>
            </g>
            <g transform="matrix(0.138452,0,0,2e-06,68.6915,342.967)">
                <rect x="38" y="342" width="54" height="54" style="fill:none;stroke:rgb(116,116,116);stroke-width:20.43px;"/>
            </g>
            <g transform="matrix(0.138452,0,0,2e-06,68.6915,350.052)">
                <rect x="38" y="342" width="54" height="54" style="fill:none;stroke:rgb(116,116,116);stroke-width:20.43px;"/>
            </g>
            <g transform="matrix(0.138452,0,0,2e-06,68.6915,357.137)">
                <rect x="38" y="342" width="54" height="54" style="fill:none;stroke:rgb(116,116,116);stroke-width:20.43px;"/>
            </g>
            <g transform="matrix(0.138452,0,0,2e-06,68.6915,364.223)">
                <rect x="38" y="342" width="54" height="54" style="fill:none;stroke:rgb(116,116,116);stroke-width:20.43px;"/>
            </g>
            <g transform="matrix(1,0,0,0.768425,-3.97271,66.7035)">
                <rect x="38" y="342" width="54" height="54" style="fill:none;stroke:rgb(116,116,116);stroke-width:2.24px;"/>
            </g>
            <g transform="matrix(1,0,0,1,148.027,-20)">
                <rect x="-114" y="349.505" width="54" height="5.495" style="fill:none;stroke:rgb(116,116,116);stroke-width:2px;"/>
            </g>
        </g>
    </g>
</svg>
