<?xml version="1.0" encoding="UTF-8" standalone="no"?>
<!DOCTYPE svg PUBLIC "-//W3C//DTD SVG 1.1//EN" "http://www.w3.org/Graphics/SVG/1.1/DTD/svg11.dtd">
<svg width="100%" height="100%" viewBox="0 0 52 52" version="1.1" xmlns="http://www.w3.org/2000/svg" xmlns:xlink="http://www.w3.org/1999/xlink" xml:space="preserve" xmlns:serif="http://www.serif.com/" style="fill-rule:evenodd;clip-rule:evenodd;stroke-linecap:round;stroke-linejoin:round;stroke-miterlimit:1.5;">
    <g transform="matrix(1,0,0,1,-38.5965,-181.766)">
        <g id="checkbox" transform="matrix(0.755065,0,0,0.755065,-7.21746,-521.544)">
            <rect x="62" y="932.78" width="66.22" height="66.22" style="fill:none;stroke:rgb(116,116,116);stroke-width:2.65px;"/>
        </g>
    </g>
</svg>
