<?xml version="1.0" encoding="UTF-8" standalone="no"?>
<!DOCTYPE svg PUBLIC "-//W3C//DTD SVG 1.1//EN" "http://www.w3.org/Graphics/SVG/1.1/DTD/svg11.dtd">
<svg width="100%" height="100%" viewBox="0 0 52 52" version="1.1" xmlns="http://www.w3.org/2000/svg" xmlns:xlink="http://www.w3.org/1999/xlink" xml:space="preserve" xmlns:serif="http://www.serif.com/" style="fill-rule:evenodd;clip-rule:evenodd;stroke-linecap:round;stroke-linejoin:round;stroke-miterlimit:1.5;">
    <g transform="matrix(1,0,0,1,-538.129,-781.633)">
        <g id="ico-trash">
            <g transform="matrix(0.830645,0,0,0.532256,73.6328,391.141)">
                <rect x="566" y="769.279" width="49" height="60.194" style="fill:none;stroke:rgb(116,116,116);stroke-width:2.87px;"/>
            </g>
            <g transform="matrix(2.03772e-17,0.366557,-0.830645,6.91335e-17,1228.13,575.161)">
                <rect x="566" y="769.279" width="49" height="60.194" style="fill:none;stroke:rgb(116,116,116);stroke-width:3.12px;"/>
            </g>
        </g>
    </g>
</svg>
